1) входной поток(source) на нашем языке
(
a=1
b=1
b=a+1
while(a<10){
a=a+2;
}
)
для этого языка конечно есть грамматика,
которая у нас описана отдельно

2) source разбить на токены
a=1
 тут 3 токена:
 new Token(Lexem.VAR, "a")
 new Token(Lexem.ASSIGN_OP, "=")
 new Token(Lexem.DIGIT, "1")

source
  a=1

1) Ждём "удачи"
2) Записываем первый символ из source в acc
3) Начинаем искать всеми регулярными выражениями лексем в этом acc



============================

1) Префиксный !true

2) Инфиксный a+b

3) Постфиксный ab+
====================
Плюсы постфиксной формы записи:

- удобство выполнения на стеке
- "плоская структура" - отсутствие скобок
====================

1+3+4+5 T

ПОЛИЗ: 1 3 + 4 + 5 +

ВРЕМЕННЫЙ СТЕК ОПЕРАЦИЙ: T

- операнды сразу идут в полиз
- операции идут в стек
- конец выражения вытесняет всё из стека операций
====================

СТЕК машина принимает на вход ПОЛИЗ и вычисляет его:

1 3 + 4 + 5 +
3 + 4 + 5 +
+ 4 + 5 +
4 + 5 +
+ 5 +
5 +
+

СТЕК ОПЕРАНДОВ (вход сверху) - LIFO (last in first out) :
верх_стека 1 низ_стека
верх_стека 3 1 низ_стека
верх_стека низ_стека
верх_стека 4 низ_стека
верх_стека 4 4 низ_стека
верх_стека низ_стека
верх_стека 8 низ_стека
верх_стека 5 8 низ_стека
верх_стека низ_стека
верх_стека 13 низ_стека

====================
(1+3)*4+15 T

ПОЛИЗ: 1 3 + 4 * 15 +

ВРЕМЕННЫЙ СТЕК ОПЕРАЦИЙ: (+)
ВРЕМЕННЫЙ СТЕК ОПЕРАЦИЙ: *
ВРЕМЕННЫЙ СТЕК ОПЕРАЦИЙ: +
ВРЕМЕННЫЙ СТЕК ОПЕРАЦИЙ:
- закрывающая скобка вытесняет все операции до открывающей
- арифм операция МЕНЬШЕГО приоритета вытесняет более приоритетную операцию

3 1
4
4 4
16
15 16
31
====================
a = b + 1
a b 1 + =

1 b a
(1+b) a

таблица переменных меняется каждый раз при выполнении операции присваивания

a = (1+b)
====================

p! - безусловный переход (p - метка перехода - это номер элемента
в полизе, который будет помещён СЛЕДУЮЩИМ в стекмашину при выполнении
ПОЛИЗ, ! - собственно операция, которая инициирует такое помещение
в стекмашину)

b p !F - b - это логическое значение (true/false), p - метка перехода

!F - оператор перехода по лжи, то есть если b = false, то следующий номер элемента,
который попадёт в стек машину будет p

a=1; while (a<3){a=a+1; b=a} c=b+2;

a 1 = a 3 < p1 !F a a 1 + = b a = p2 ! c b 2 + =

a 1 = a 3 < p1 !F a  a  1  +  =  b  a  =  p2 !  c  b  2  +  =  T
-----------------------------------------------------------------
0 1 3 4 5 6 7  8  9 10  11 12 13 14 15 16 17 18 19 20 21 22 23 24

таблица переменных:
p1 = 19
p2 = 4
a  = 3
b  = 3
c  = 5

next_element_index = 24
СТЕК МАШИНА
====================

Собственные типы данных (13.05.2020)

1) Связанный список

LIST a
a add 1
a add 10

RPN:
a LIST
a - это операнд
LIST - оператор
переменная, которая попадает в стек
(при вычислении полиза на стек-машине) по-умолчанию является числом, но
потом оператор типа (LIST или HASH_SET) может уточнить (изменить)
тип переменнной

LIST(a) :
 - меняется таблица переменных
 - переменная а ассоциируется с объектом типа LIST (который вы сами разработали)

| имя переменной | значение переменной | тип переменной |
        a           объект типа LIST          LIST

объект-обертка-над-значением-элемента_1 -> объект-обертка-над-значением-элемента_2 ->
объект-обертка-над-значением-элемента_3 ...
-> объект-обертка-над-значением-элемента_N

Объект-обёртка
поля объекта:
 - значение элемента списка
 - ссылка на следующий объект-обёртку

totalCount = 100

хотим получить 49

totalCount / 2 = 50
====================

HASH_SET

0 ->
1 -> 1
2 -> 6
3 -> 7 11

число 7 (хешкод числа = самому числу)

7 mod 4 = 3
11 mod 4 = 3
1 mod 4 = 1
6 mod 4 = 2

HASH_SET c
c add 7
c add 11
c add 1
c add 6
if (c contains 11) {...}

====================

HASH_SET b
b add 3
b contains 3 - возвращает boolean

while (!(b contains 3)) {} -> b 3 contains p1 !F

====================

Оптимизация триад.

Тетрады и триады:

Тетрады:
A = 1 + 1

Триады:
исх. выражение: A = 1 + 1
->
триады:
1: +1,1
2: =A,^1

ЦЕЛЕВАЯ КАРТИНА:
исходный код -> внутреннее представление (ПОЛИЗ) -> триады -> оптимизация (свёртка) триад ->
-> ПОЛИЗ -> выполнение на стек машине

Свёртка кода для триад.

C(K,0)
T

1 шаг:
1: +1,1 -> C(2,0)
2: =A,^1

2 шаг:
1: C(2,0)
2: =A,^1

3 шаг:

1: С(2,0)
2: =A,2

T: A->2

4 шаг:
=A,2
T: A->2
=======

1) если операнд - это переменная, которая есть в Т,
то заменить на значение из Т
2) если операнд - ссылка на C(К,0),
то заменить операнд на значение К
3) если все операнды триады - константы, триада может быть свёрнута
4) если триада - это присваивание, то:
 - если справа константа, то заносится в таблицу Т
 - если справа не константа, то соответствующая
 запись исключается из таблиц Т

age = 2 + 3
age = 10
size = age + age*2
->
1: + 2,3
2: = age, ^1
3: = age, 10
4: * age, 2
5: + ^4, age
6: = size, ^5

    1              2            3           4           5
1 С(5,0)        С(5,0)      С(5,0)      С(5,0)      С(5,0)
2 = age, ^1     = age, 5    = age, 5    = age, 5    = age, 5
3 = age, 10     = age, 10   = age, 10   = age, 10   = age, 10
4 * age, 2      * age, 2    * age, 2    C(20,0)     C(20,0)
5 + ^4, age     + ^4, age   + ^4, age   + ^4, age   C(30,0)
6 = size, ^5    = size, ^5  = size, ^5  = size, ^5  = size, 30

T
--              age -> 5    age -> 10   age -> 10   age -> 10
                                                    size -> 30

= age, 5
= age, 10
= size, 30



